# Exported from Wings 3D 2.1.5
mtllib ./torus.mtl
o cone2
#17 vertices, 30 faces
v 0.19126800 0.26165806 3.2080405e-18
v 0.17670859 0.26165806 7.3195095e-2
v 0.13524690 0.26165806 0.13524690
v 7.3195095e-2 0.26165806 0.17670859
v -1.7215308e-17 0.26165806 0.19126800
v -7.3195095e-2 0.26165806 0.17670859
v -0.13524690 0.26165806 0.13524690
v -0.17670859 0.26165806 7.3195095e-2
v -0.19126800 0.26165806 2.6631615e-17
v -0.17670859 0.26165806 -7.3195095e-2
v -0.13524690 0.26165806 -0.13524690
v -7.3195095e-2 0.26165806 -0.17670859
v -6.4062457e-17 0.26165806 -0.19126800
v 7.3195095e-2 0.26165806 -0.17670859
v 0.13524690 0.26165806 -0.13524690
v 0.17670859 0.26165806 -7.3195095e-2
v -2.8927095e-17 0.64419406 3.2080405e-18
vn 0.99770979 -6.7640061e-2 -6.2893574e-17
vn 0.59046943 -0.76910745 0.24458044
vn 0.45192573 -0.76910745 0.45192573
vn 0.24458044 -0.76910745 0.59046943
vn 2.0144390e-17 -0.76910745 0.63911950
vn -0.24458044 -0.76910745 0.59046943
vn -0.45192573 -0.76910745 0.45192573
vn -0.77971445 -0.53641108 0.32296830
vn -0.99770979 -6.7640061e-2 2.5157430e-16
vn -0.59046943 -0.76910745 -0.24458044
vn -0.45192573 -0.76910745 -0.45192573
vn -0.24458044 -0.76910745 -0.59046943
vn -1.0072195e-16 -0.76910745 -0.63911950
vn 0.24458044 -0.76910745 -0.59046943
vn 0.45192573 -0.76910745 -0.45192573
vn 0.77971445 -0.53641108 -0.32296830
vn -7.8797431e-17 1.00000000 -1.0637653e-16
g cone2_default
usemtl default
s 1
f 1//1 17//17 2//2
f 2//2 16//16 1//1
f 2//2 17//17 3//3
f 3//3 15//15 2//2
f 3//3 17//17 4//4
f 4//4 14//14 3//3
f 4//4 17//17 5//5
f 5//5 13//13 4//4
f 5//5 17//17 6//6
f 6//6 12//12 5//5
f 6//6 17//17 7//7
f 7//7 11//11 6//6
f 7//7 17//17 8//8
f 8//8 10//10 7//7
f 8//8 17//17 9//9
f 9//9 10//10 8//8
f 9//9 17//17 10//10
f 10//10 17//17 11//11
f 11//11 7//7 10//10
f 11//11 17//17 12//12
f 12//12 6//6 11//11
f 12//12 17//17 13//13
f 13//13 5//5 12//12
f 13//13 17//17 14//14
f 14//14 4//4 13//13
f 14//14 17//17 15//15
f 15//15 3//3 14//14
f 15//15 17//17 16//16
f 16//16 2//2 15//15
f 16//16 17//17 1//1
o Torus1
#128 vertices, 256 faces
v 0.48750000 1.0651519e-2 0.71227738
v 0.45894291 -5.8291392e-2 0.71227738
v 0.39000000 -8.6848481e-2 0.71227738
v 0.32105709 -5.8291392e-2 0.71227738
v 0.29250000 1.0651519e-2 0.71227738
v 0.32105709 7.9594430e-2 0.71227738
v 0.39000000 0.10815152 0.71227738
v 0.45894291 7.9594430e-2 0.71227738
v 0.45039127 1.0651519e-2 0.89883555
v 0.42400796 -5.8291392e-2 0.88790722
v 0.36031302 -8.6848481e-2 0.86152391
v 0.29661807 -5.8291392e-2 0.83514061
v 0.27023476 1.0651519e-2 0.82421228
v 0.29661807 7.9594430e-2 0.83514061
v 0.36031302 0.10815152 0.86152391
v 0.42400796 7.9594430e-2 0.88790722
v 0.34471456 1.0651519e-2 1.05699193
v 0.32452164 -5.8291392e-2 1.03679902
v 0.27577164 -8.6848481e-2 0.98804902
v 0.22702164 -5.8291392e-2 0.93929902
v 0.20682873 1.0651519e-2 0.91910611
v 0.22702164 7.9594430e-2 0.93929902
v 0.27577164 0.10815152 0.98804902
v 0.32452164 7.9594430e-2 1.03679902
v 0.18655817 1.0651519e-2 1.16266865
v 0.17562985 -5.8291392e-2 1.13628534
v 0.14924654 -8.6848481e-2 1.07259039
v 0.12286323 -5.8291392e-2 1.00889545
v 0.11193490 1.0651519e-2 0.98251214
v 0.12286323 7.9594430e-2 1.00889545
v 0.14924654 0.10815152 1.07259039
v 0.17562985 7.9594430e-2 1.13628534
v -2.0941938e-17 1.0651519e-2 1.19977738
v -2.2690555e-17 -5.8291392e-2 1.17122029
v -2.6912091e-17 -8.6848481e-2 1.10227738
v -3.1133627e-17 -5.8291392e-2 1.03333447
v -3.2882244e-17 1.0651519e-2 1.00477738
v -3.1133627e-17 7.9594430e-2 1.03333447
v -2.6912091e-17 0.10815152 1.10227738
v -2.2690555e-17 7.9594430e-2 1.17122029
v -0.18655817 1.0651519e-2 1.16266865
v -0.17562985 -5.8291392e-2 1.13628534
v -0.14924654 -8.6848481e-2 1.07259039
v -0.12286323 -5.8291392e-2 1.00889545
v -0.11193490 1.0651519e-2 0.98251214
v -0.12286323 7.9594430e-2 1.00889545
v -0.14924654 0.10815152 1.07259039
v -0.17562985 7.9594430e-2 1.13628534
v -0.34471456 1.0651519e-2 1.05699193
v -0.32452164 -5.8291392e-2 1.03679902
v -0.27577164 -8.6848481e-2 0.98804902
v -0.22702164 -5.8291392e-2 0.93929902
v -0.20682873 1.0651519e-2 0.91910611
v -0.22702164 7.9594430e-2 0.93929902
v -0.27577164 0.10815152 0.98804902
v -0.32452164 7.9594430e-2 1.03679902
v -0.45039127 1.0651519e-2 0.89883555
v -0.42400796 -5.8291392e-2 0.88790722
v -0.36031302 -8.6848481e-2 0.86152391
v -0.29661807 -5.8291392e-2 0.83514061
v -0.27023476 1.0651519e-2 0.82421228
v -0.29661807 7.9594430e-2 0.83514061
v -0.36031302 0.10815152 0.86152391
v -0.42400796 7.9594430e-2 0.88790722
v -0.48750000 1.0651519e-2 0.71227738
v -0.45894291 -5.8291392e-2 0.71227738
v -0.39000000 -8.6848481e-2 0.71227738
v -0.32105709 -5.8291392e-2 0.71227738
v -0.29250000 1.0651519e-2 0.71227738
v -0.32105709 7.9594430e-2 0.71227738
v -0.39000000 0.10815152 0.71227738
v -0.45894291 7.9594430e-2 0.71227738
v -0.45039127 1.0651519e-2 0.52571920
v -0.42400796 -5.8291392e-2 0.53664753
v -0.36031302 -8.6848481e-2 0.56303084
v -0.29661807 -5.8291392e-2 0.58941415
v -0.27023476 1.0651519e-2 0.60034247
v -0.29661807 7.9594430e-2 0.58941415
v -0.36031302 0.10815152 0.56303084
v -0.42400796 7.9594430e-2 0.53664753
v -0.34471456 1.0651519e-2 0.36756282
v -0.32452164 -5.8291392e-2 0.38775573
v -0.27577164 -8.6848481e-2 0.43650573
v -0.22702164 -5.8291392e-2 0.48525573
v -0.20682873 1.0651519e-2 0.50544864
v -0.22702164 7.9594430e-2 0.48525573
v -0.27577164 0.10815152 0.43650573
v -0.32452164 7.9594430e-2 0.38775573
v -0.18655817 1.0651519e-2 0.26188610
v -0.17562985 -5.8291392e-2 0.28826941
v -0.14924654 -8.6848481e-2 0.35196436
v -0.12286323 -5.8291392e-2 0.41565930
v -0.11193490 1.0651519e-2 0.44204261
v -0.12286323 7.9594430e-2 0.41565930
v -0.14924654 0.10815152 0.35196436
v -0.17562985 7.9594430e-2 0.28826941
v -1.4034500e-16 1.0651519e-2 0.22477738
v -1.3509915e-16 -5.8291392e-2 0.25333447
v -1.2243454e-16 -8.6848481e-2 0.32227738
v -1.0976993e-16 -5.8291392e-2 0.39122029
v -1.0452408e-16 1.0651519e-2 0.41977738
v -1.0976993e-16 7.9594430e-2 0.39122029
v -1.2243454e-16 0.10815152 0.32227738
v -1.3509915e-16 7.9594430e-2 0.25333447
v 0.18655817 1.0651519e-2 0.26188610
v 0.17562985 -5.8291392e-2 0.28826941
v 0.14924654 -8.6848481e-2 0.35196436
v 0.12286323 -5.8291392e-2 0.41565930
v 0.11193490 1.0651519e-2 0.44204261
v 0.12286323 7.9594430e-2 0.41565930
v 0.14924654 0.10815152 0.35196436
v 0.17562985 7.9594430e-2 0.28826941
v 0.34471456 1.0651519e-2 0.36756282
v 0.32452164 -5.8291392e-2 0.38775573
v 0.27577164 -8.6848481e-2 0.43650573
v 0.22702164 -5.8291392e-2 0.48525573
v 0.20682873 1.0651519e-2 0.50544864
v 0.22702164 7.9594430e-2 0.48525573
v 0.27577164 0.10815152 0.43650573
v 0.32452164 7.9594430e-2 0.38775573
v 0.45039127 1.0651519e-2 0.52571920
v 0.42400796 -5.8291392e-2 0.53664753
v 0.36031302 -8.6848481e-2 0.56303084
v 0.29661807 -5.8291392e-2 0.58941415
v 0.27023476 1.0651519e-2 0.60034247
v 0.29661807 7.9594430e-2 0.58941415
v 0.36031302 0.10815152 0.56303084
v 0.42400796 7.9594430e-2 0.53664753
vt 0.0000000e+0 0.39646433
vt 1.2004297e-2 0.0000000e+0
vt 0.10752926 0.59373484
vt 0.10961976 0.58321394
vt 0.12891913 0.41428210
vt 0.12984713 0.47879017
vt 0.13637719 0.69671312
vt 0.16690590 0.59358548
vt 0.18161775 0.54743268
vt 0.18647755 0.67050384
vt 0.18911787 0.51167540
vt 0.20066037 0.28350818
vt 0.20465826 0.77575002
vt 0.20746842 0.59560935
vt 0.20933197 0.42884079
vt 0.21627673 0.36957296
vt 0.21669143 0.66642338
vt 0.22205221 0.65221092
vt 0.22570453 0.53942331
vt 0.23053828 0.59722084
vt 0.23080253 0.62265586
vt 0.23786643 0.52861240
vt 0.23786656 0.72998780
vt 0.24331676 0.58457339
vt 0.24351177 0.55824282
vt 0.24388137 0.64068721
vt 0.24404216 0.59760850
vt 0.24629225 0.70068701
vt 0.25142388 0.57061815
vt 0.25177398 0.58811628
vt 0.25242851 0.63010768
vt 0.25318479 0.59680773
vt 0.25470597 0.57919380
vt 0.25491612 0.58522529
vt 0.25565915 0.61353333
vt 0.25811218 0.63244220
vt 0.26015762 0.59458267
vt 0.26108753 0.44083790
vt 0.26113263 0.69744740
vt 0.26570646 0.58989003
vt 0.26763327 0.43398871
vt 0.26908327 0.62534481
vt 0.26994814 0.57946094
vt 0.27044076 0.59899695
vt 0.27570477 0.67752353
vt 0.27887145 0.61818954
vt 0.27987258 0.58181291
vt 0.28118461 0.38409553
vt 0.28252596 0.49698355
vt 0.28586283 0.56140957
vt 0.28592934 0.66464120
vt 0.28598164 0.51436688
vt 0.28663131 0.60920466
vt 0.28741356 0.67060368
vt 0.28798786 0.53504878
vt 0.28881884 0.60956546
vt 0.29164523 0.69308268
vt 0.29454499 0.65481733
vt 0.30062625 0.59718283
vt 0.30235439 0.81924939
vt 0.30269637 0.28201876
vt 0.30304609 0.64617224
vt 0.30428139 0.66981468
vt 0.31112649 0.76052412
vt 0.31302356 0.63758297
vt 0.31306279 0.63979971
vt 0.31306736 0.81870920
vt 0.31501570 0.72009778
vt 0.31592263 0.42996269
vt 0.31677214 0.69703851
vt 0.31835000 0.68362153
vt 0.31976842 0.59495532
vt 0.32047023 0.67469216
vt 0.32081062 0.65730121
vt 0.32368448 0.66811646
vt 0.32698987 0.62769933
vt 0.32748463 0.42560829
vt 0.32886459 0.67735043
vt 0.32913331 0.66330807
vt 0.33114151 0.68623256
vt 0.33197411 0.60908369
vt 0.33212705 0.50016395
vt 0.33218131 0.67466152
vt 0.33811831 0.67574550
vt 0.33918237 0.65046535
vt 0.34006790 0.66062616
vt 0.34612630 0.68023838
vt 0.34795303 0.57608401
vt 0.35473906 0.58393899
vt 0.35722118 0.68986407
vt 0.35892672 0.75267187
vt 0.35935903 0.44019552
vt 0.35940463 0.41242253
vt 0.36023941 0.64750217
vt 0.36261940 0.53663700
vt 0.37325465 0.71021596
vt 0.37617264 0.48266650
vt 0.37748591 0.29556268
vt 0.37872517 0.39364804
vt 0.38014959 0.43324016
vt 0.38172247 0.48248686
vt 0.38457099 0.40326928
vt 0.38571741 0.69975329
vt 0.38662930 0.64922852
vt 0.39539418 0.75044495
vt 0.39589799 0.57515774
vt 0.40000013 0.36736589
vt 0.40680048 0.65421746
vt 0.41932173 0.81386365
vt 0.42349754 0.66016138
vt 0.42755531 0.61062436
vt 0.43895495 0.26776811
vt 0.44305335 0.45546031
vt 0.45126474 0.56958733
vt 0.45224857 0.56412244
vt 0.47593390 0.68952750
vt 0.48028640 0.74247676
vt 0.48191452 0.95429144
vt 0.48301092 0.82415147
vt 0.48366121 0.68404601
vt 0.48789669 0.50736749
vt 0.49084318 0.59239144
vt 0.49465846 0.63685351
vt 0.49868899 9.5603982e-2
vt 0.50064603 0.62604659
vt 0.50074457 0.57283161
vt 0.51832827 0.59638029
vt 0.52936045 0.41309032
vt 0.53103981 0.57281030
vt 0.53499359 0.67788524
vt 0.53970993 0.57999159
vt 0.53993443 0.74421417
vt 0.54235326 0.42812980
vt 0.56880351 0.56275967
vt 0.60910603 0.30990251
vt 0.62281828 0.77216564
vt 0.63657513 0.59546439
vt 0.63911240 0.67142803
vt 0.65602967 0.36421770
vt 0.67300318 0.53868431
vt 0.85201780 0.50459018
vt 0.87591807 1.00000000
vn 1.00000000 9.3163774e-16 -1.0690925e-16
vn 0.70509498 -0.70911288 -9.1007596e-17
vn -4.8206929e-16 -1.00000000 4.1427830e-17
vn -0.70509498 -0.70911288 -6.0671731e-17
vn -1.00000000 -7.4836474e-16 -1.4509112e-16
vn -0.70509498 0.70911288 3.6023840e-17
vn 1.0545266e-16 1.00000000 -2.2596998e-17
vn 0.70509498 0.70911288 -3.7919832e-18
vn 0.92387953 8.3236487e-16 0.38268343
vn 0.65142282 -0.70911288 0.26982817
vn -3.0882564e-16 -1.00000000 -2.6739781e-16
vn -0.65142282 -0.70911288 -0.26982817
vn -0.92387953 -2.6727312e-16 -0.38268343
vn -0.65142282 0.70911288 -0.26982817
vn 1.5064665e-16 1.00000000 7.7206410e-17
vn 0.65142282 0.70911288 0.26982817
vn 0.70710678 6.8727374e-16 0.70710678
vn 0.49857744 -0.70911288 0.49857744
vn -5.2726329e-16 -1.00000000 -3.3142264e-16
vn -0.49857744 -0.70911288 -0.49857744
vn -0.70710678 -1.0690925e-16 -0.70710678
vn -0.49857744 0.70911288 -0.49857744
vn -1.6571132e-16 1.00000000 1.3558199e-16
vn 0.49857744 0.70911288 0.49857744
vn 0.38268343 7.4836474e-16 0.92387953
vn 0.26982817 -0.70911288 0.65142282
vn -2.7116398e-16 -1.00000000 -4.8206929e-16
vn -0.26982817 -0.70911288 -0.65142282
vn -0.38268343 -5.9563724e-16 -0.92387953
vn -0.26982817 0.70911288 -0.65142282
vn -8.6621826e-17 1.00000000 -7.5323327e-18
vn 0.26982817 0.70911288 0.65142282
vn 0.0000000e+0 0.0000000e+0 1.00000000
vn -3.7919832e-18 -0.70911288 0.70509498
vn 3.7661663e-18 -1.00000000 3.0129331e-17
vn -3.7919832e-18 -0.70911288 -0.70509498
vn -1.5272750e-17 1.5272750e-17 -1.00000000
vn 1.1375950e-17 0.70911288 -0.70509498
vn 3.7661663e-18 1.00000000 3.0129331e-17
vn -3.7919832e-18 0.70911288 0.70509498
vn -0.38268343 8.7818312e-16 0.92387953
vn -0.26982817 -0.70911288 0.65142282
vn 2.3350231e-16 -1.00000000 -4.4440763e-16
vn 0.26982817 -0.70911288 -0.65142282
vn 0.38268343 -5.6509174e-16 -0.92387953
vn 0.26982817 0.70911288 -0.65142282
vn -3.7661663e-18 1.00000000 1.3558199e-16
vn -0.26982817 0.70911288 0.65142282
vn -0.70710678 3.6654600e-16 0.70710678
vn -0.49857744 -0.70911288 0.49857744
vn 2.5609931e-16 -1.00000000 -7.5323327e-18
vn 0.49857744 -0.70911288 -0.49857744
vn 0.70710678 -1.8327300e-16 -0.70710678
vn 0.49857744 0.70911288 -0.49857744
vn -1.3558199e-16 1.00000000 3.3895497e-16
vn -0.49857744 0.70911288 0.49857744
vn -0.92387953 4.7345525e-16 0.38268343
vn -0.65142282 -0.70911288 0.26982817
vn 3.1635797e-16 -1.00000000 -1.0545266e-16
vn 0.65142282 -0.70911288 -0.26982817
vn 0.92387953 -3.4363687e-16 -0.38268343
vn 0.65142282 0.70911288 -0.26982817
vn 3.7661663e-17 1.00000000 -1.5064665e-17
vn -0.65142282 0.70911288 0.26982817
vn -1.00000000 9.3163774e-16 -8.4000124e-17
vn -0.70509498 -0.70911288 -1.8959916e-17
vn 2.7116398e-16 -1.00000000 -2.2596998e-17
vn 0.70509498 -0.70911288 -7.5839664e-18
vn 1.00000000 0.0000000e+0 1.5272750e-16
vn 0.70509498 0.70911288 -1.0427954e-16
vn 0.0000000e+0 1.00000000 -4.1427830e-17
vn -0.70509498 0.70911288 9.1007596e-17
vn -0.92387953 4.7345525e-16 -0.38268343
vn -0.65142282 -0.70911288 -0.26982817
vn 3.5401963e-16 -1.00000000 2.1467148e-16
vn 0.65142282 -0.70911288 0.26982817
vn 0.92387953 -4.6581887e-16 0.38268343
vn 0.65142282 0.70911288 0.26982817
vn 1.1298499e-16 1.00000000 4.7077079e-17
vn -0.65142282 0.70911288 -0.26982817
vn -0.70710678 1.0843652e-15 -0.70710678
vn -0.49857744 -0.70911288 -0.49857744
vn 3.3142264e-16 -1.00000000 3.0129331e-16
vn 0.49857744 -0.70911288 0.49857744
vn 0.70710678 -6.8727374e-16 0.70710678
vn 0.49857744 0.70911288 0.49857744
vn -3.0129331e-17 1.00000000 -4.5193996e-17
vn -0.49857744 0.70911288 -0.49857744
vn -0.38268343 4.9636437e-16 -0.92387953
vn -0.26982817 -0.70911288 -0.65142282
vn 1.2051732e-16 -1.00000000 2.4103464e-16
vn 0.26982817 -0.70911288 0.65142282
vn 0.38268343 -3.9709150e-16 0.92387953
vn 0.26982817 0.70911288 0.65142282
vn 4.8960162e-17 1.00000000 -6.0258661e-17
vn -0.26982817 0.70911288 -0.65142282
vn -4.0472787e-16 7.0254649e-16 -1.00000000
vn -4.1711815e-17 -0.70911288 -0.70509498
vn -7.5323327e-18 -1.00000000 2.2596998e-16
vn 1.0238355e-16 -0.70911288 0.70509498
vn 7.6363749e-18 -3.3600050e-16 1.00000000
vn 9.4799580e-17 0.70911288 0.70509498
vn -7.5323327e-17 1.00000000 -1.9584065e-16
vn -7.2047680e-17 0.70911288 -0.70509498
vn 0.38268343 4.8109162e-16 -0.92387953
vn 0.26982817 -0.70911288 -0.65142282
vn 2.0713915e-17 -1.00000000 1.8077598e-16
vn -0.26982817 -0.70911288 0.65142282
vn -0.38268343 -3.8181875e-16 0.92387953
vn -0.26982817 0.70911288 0.65142282
vn 6.7790994e-17 1.00000000 -2.0337298e-16
vn 0.26982817 0.70911288 -0.65142282
vn 0.70710678 4.4290975e-16 -0.70710678
vn 0.49857744 -0.70911288 -0.49857744
vn 1.0545266e-16 -1.00000000 -3.7661663e-17
vn -0.49857744 -0.70911288 0.49857744
vn -0.70710678 -5.6509174e-16 0.70710678
vn -0.49857744 0.70911288 0.49857744
vn 3.9168130e-16 1.00000000 -3.2389030e-16
vn 0.49857744 0.70911288 -0.49857744
vn 0.92387953 3.3600050e-16 -0.38268343
vn 0.65142282 -0.70911288 -0.26982817
vn -1.9584065e-16 -1.00000000 2.6363164e-17
vn -0.65142282 -0.70911288 0.26982817
vn -0.92387953 -5.3454624e-16 0.38268343
vn -0.65142282 0.70911288 0.26982817
vn 2.3350231e-16 1.00000000 -1.4311432e-16
vn 0.65142282 0.70911288 -0.26982817
g Torus1_Torus1_auv
usemtl Torus1_auv
s 1
f 18/47/18 26/33/26 19/50/19
f 18/47/18 138/81/138 25/44/25
f 19/50/19 26/33/26 27/29/27
f 19/50/19 28/25/28 20/55/20
f 19/50/19 138/81/138 18/47/18
f 19/50/19 140/95/140 139/88/139
f 20/55/20 28/25/28 21/49/21
f 20/55/20 140/95/140 19/50/19
f 21/49/21 28/25/28 29/19/29
f 21/49/21 30/11/30 22/38/22
f 21/49/21 140/95/140 20/55/20
f 21/49/21 142/102/142 141/97/141
f 22/38/22 30/11/30 23/16/23
f 22/38/22 142/102/142 21/49/21
f 23/16/23 30/11/30 31/6/31
f 23/21/23 32/30/32 24/35/24
f 23/16/23 142/102/142 22/38/22
f 23/21/23 144/54/144 143/28/143
f 24/35/24 32/30/32 25/44/25
f 24/35/24 144/54/144 23/21/23
f 25/44/25 26/33/26 18/47/18
f 25/44/25 32/30/32 33/34/33
f 25/44/25 138/81/138 145/66/145
f 25/44/25 144/54/144 24/35/24
f 26/33/26 35/27/35 27/29/27
f 26/33/26 41/37/41 34/32/34
f 27/29/27 28/25/28 19/50/19
f 27/29/27 35/27/35 28/25/28
f 28/25/28 35/27/35 36/20/36
f 28/25/28 37/14/37 29/19/29
f 29/19/29 30/11/30 21/49/21
f 29/19/29 37/14/37 30/11/30
f 30/11/30 37/14/37 38/8/38
f 30/11/30 39/3/39 31/6/31
f 31/24/31 32/30/32 23/21/23
f 31/24/31 39/43/39 32/30/32
f 32/30/32 39/43/39 40/40/40
f 32/30/32 41/37/41 33/34/33
f 33/34/33 26/33/26 25/44/25
f 33/34/33 41/37/41 26/33/26
f 34/32/34 35/27/35 26/33/26
f 34/32/34 42/42/42 35/27/35
f 35/27/35 42/42/42 43/36/43
f 35/27/35 44/26/44 36/20/36
f 36/20/36 37/14/37 28/25/28
f 36/20/36 44/26/44 37/14/37
f 37/14/37 44/26/44 45/18/45
f 37/14/37 46/10/46 38/8/38
f 38/8/38 39/3/39 30/11/30
f 38/8/38 46/10/46 39/3/39
f 39/3/39 46/10/46 47/7/47
f 39/43/39 48/56/48 40/40/40
f 40/40/40 41/37/41 32/30/32
f 40/40/40 48/56/48 41/37/41
f 41/37/41 42/42/42 34/32/34
f 41/37/41 48/56/48 49/46/49
f 42/42/42 51/51/51 43/36/43
f 42/42/42 57/62/57 50/58/50
f 43/36/43 44/26/44 35/27/35
f 43/36/43 51/51/51 44/26/44
f 44/26/44 51/51/51 52/45/52
f 44/26/44 53/39/53 45/18/45
f 45/18/45 46/10/46 37/14/37
f 45/18/45 53/39/53 46/10/46
f 46/10/46 53/39/53 54/23/54
f 46/10/46 55/13/55 47/7/47
f 47/59/47 48/56/48 39/43/39
f 47/59/47 55/76/55 48/56/48
f 48/56/48 55/76/55 56/65/56
f 48/56/48 57/62/57 49/46/49
f 49/46/49 42/42/42 41/37/41
f 49/46/49 57/62/57 42/42/42
f 50/58/50 51/51/51 42/42/42
f 50/58/50 58/73/58 51/51/51
f 51/51/51 58/73/58 59/71/59
f 51/51/51 60/70/60 52/45/52
f 52/45/52 53/39/53 44/26/44
f 52/45/52 60/70/60 53/39/53
f 53/39/53 60/70/60 61/68/61
f 53/39/53 62/64/62 54/23/54
f 54/23/54 55/13/55 46/10/46
f 54/23/54 62/64/62 55/13/55
f 55/13/55 62/64/62 63/60/63
f 55/76/55 64/79/64 56/65/56
f 56/65/56 57/62/57 48/56/48
f 56/65/56 64/79/64 57/62/57
f 57/62/57 58/73/58 50/58/50
f 57/62/57 64/79/64 65/75/65
f 58/73/58 67/87/67 59/71/59
f 58/73/58 73/83/73 66/84/66
f 59/71/59 60/70/60 51/51/51
f 59/71/59 67/87/67 60/70/60
f 60/70/60 67/87/67 68/90/68
f 60/70/60 69/96/69 61/68/61
f 61/68/61 62/64/62 53/39/53
f 61/68/61 69/96/69 62/64/62
f 62/64/62 69/96/69 70/105/70
f 62/64/62 71/109/71 63/60/63
f 63/86/63 64/79/64 55/76/55
f 63/86/63 71/80/71 64/79/64
f 64/79/64 71/80/71 72/78/72
f 64/79/64 73/83/73 65/75/65
f 65/75/65 58/73/58 57/62/57
f 65/75/65 73/83/73 58/73/58
f 66/84/66 67/87/67 58/73/58
f 66/84/66 74/85/74 67/87/67
f 67/87/67 74/85/74 75/94/75
f 67/87/67 76/104/76 68/90/68
f 68/90/68 69/96/69 60/70/60
f 68/90/68 76/104/76 69/96/69
f 69/96/69 76/104/76 77/110/77
f 69/96/69 78/116/78 70/105/70
f 70/105/70 71/109/71 62/64/62
f 70/105/70 78/116/78 71/109/71
f 71/109/71 78/116/78 79/132/79
f 71/80/71 80/63/80 72/78/72
f 72/78/72 73/83/73 64/79/64
f 72/78/72 80/63/80 73/83/73
f 73/83/73 74/85/74 66/84/66
f 73/83/73 80/63/80 81/74/81
f 74/85/74 83/89/83 75/94/75
f 74/85/74 89/53/89 82/72/82
f 75/94/75 76/104/76 67/87/67
f 75/94/75 83/89/83 76/104/76
f 76/104/76 83/89/83 84/106/84
f 76/104/76 85/114/85 77/110/77
f 77/110/77 78/116/78 69/96/69
f 77/110/77 85/114/85 78/116/78
f 78/116/78 85/114/85 86/129/86
f 78/116/78 87/137/87 79/132/79
f 79/57/79 80/63/80 71/80/71
f 79/57/79 87/17/87 80/63/80
f 80/63/80 87/17/87 88/31/88
f 80/63/80 89/53/89 81/74/81
f 81/74/81 74/85/74 73/83/73
f 81/74/81 89/53/89 74/85/74
f 82/72/82 83/89/83 74/85/74
f 82/72/82 90/52/90 83/89/83
f 83/89/83 90/52/90 91/82/91
f 83/89/83 92/101/92 84/106/84
f 84/106/84 85/114/85 76/104/76
f 84/106/84 92/101/92 85/114/85
f 85/114/85 92/101/92 93/113/93
f 85/114/85 94/128/94 86/129/86
f 86/129/86 87/137/87 78/116/78
f 86/129/86 94/128/94 87/137/87
f 87/137/87 94/128/94 95/139/95
f 87/17/87 96/9/96 88/31/88
f 88/31/88 89/53/89 80/63/80
f 88/31/88 96/9/96 89/53/89
f 89/53/89 90/52/90 82/72/82
f 89/53/89 96/9/96 97/22/97
f 90/52/90 99/69/99 91/82/91
f 90/52/90 105/15/105 98/41/98
f 91/82/91 92/101/92 83/89/83
f 91/82/91 99/69/99 92/101/92
f 92/101/92 99/69/99 100/93/100
f 92/101/92 101/107/101 93/113/93
f 93/113/93 94/128/94 85/114/85
f 93/113/93 101/107/101 94/128/94
f 94/128/94 101/107/101 102/112/102
f 94/128/94 103/124/103 95/139/95
f 95/4/95 96/9/96 87/17/87
f 95/4/95 103/1/103 96/9/96
f 96/9/96 103/1/103 104/5/104
f 96/9/96 105/15/105 97/22/97
f 97/22/97 90/52/90 89/53/89
f 97/22/97 105/15/105 90/52/90
f 98/41/98 99/69/99 90/52/90
f 98/41/98 106/77/106 99/69/99
f 99/69/99 106/77/106 107/92/107
f 99/69/99 108/100/108 100/93/100
f 100/93/100 101/107/101 92/101/92
f 100/93/100 108/100/108 101/107/101
f 101/107/101 108/100/108 109/99/109
f 101/107/101 110/61/110 102/112/102
f 102/112/102 103/124/103 94/128/94
f 102/112/102 110/61/110 103/124/103
f 103/124/103 110/61/110 111/2/111
f 103/1/103 112/12/112 104/5/104
f 104/5/104 105/15/105 96/9/96
f 104/5/104 112/12/112 105/15/105
f 105/15/105 106/77/106 98/41/98
f 105/15/105 112/12/112 113/48/113
f 106/77/106 115/122/115 107/92/107
f 106/77/106 121/130/121 114/125/114
f 107/92/107 108/100/108 99/69/99
f 107/92/107 115/122/115 108/100/108
f 108/100/108 115/122/115 116/126/116
f 108/100/108 117/131/117 109/99/109
f 109/99/109 110/61/110 101/107/101
f 109/99/109 117/131/117 110/61/110
f 110/61/110 117/131/117 118/138/118
f 110/61/110 119/142/119 111/2/111
f 111/2/111 112/12/112 103/1/103
f 111/2/111 119/142/119 112/12/112
f 112/12/112 119/142/119 120/136/120
f 112/12/112 121/130/121 113/48/113
f 113/48/113 106/77/106 105/15/105
f 113/48/113 121/130/121 106/77/106
f 114/125/114 115/122/115 106/77/106
f 114/125/114 122/120/122 115/122/115
f 115/122/115 122/120/122 123/123/123
f 115/122/115 124/127/124 116/126/116
f 116/126/116 117/131/117 108/100/108
f 116/126/116 124/127/124 117/131/117
f 117/131/117 124/127/124 125/134/125
f 117/131/117 126/140/126 118/138/118
f 118/138/118 119/142/119 110/61/110
f 118/138/118 126/140/126 119/142/119
f 119/142/119 126/140/126 127/141/127
f 119/142/119 128/119/128 120/136/120
f 120/136/120 121/130/121 112/12/112
f 120/136/120 128/119/128 121/130/121
f 121/130/121 122/120/122 114/125/114
f 121/130/121 128/119/128 129/117/129
f 122/120/122 131/111/131 123/123/123
f 122/120/122 137/103/137 130/108/130
f 123/123/123 124/127/124 115/122/115
f 123/123/123 131/111/131 124/127/124
f 124/127/124 131/111/131 132/115/132
f 124/127/124 133/121/133 125/134/125
f 125/134/125 126/140/126 117/131/117
f 125/134/125 133/121/133 126/140/126
f 126/140/126 133/121/133 134/133/134
f 126/140/126 135/135/135 127/141/127
f 127/118/127 128/119/128 119/142/119
f 127/118/127 135/67/135 128/119/128
f 128/119/128 135/67/135 136/91/136
f 128/119/128 137/103/137 129/117/129
f 129/117/129 122/120/122 121/130/121
f 129/117/129 137/103/137 122/120/122
f 130/108/130 131/111/131 122/120/122
f 130/108/130 138/81/138 131/111/131
f 131/111/131 138/81/138 139/88/139
f 131/111/131 140/95/140 132/115/132
f 132/115/132 133/121/133 124/127/124
f 132/115/132 140/95/140 133/121/133
f 133/121/133 140/95/140 141/97/141
f 133/121/133 142/102/142 134/133/134
f 134/133/134 135/135/135 126/140/126
f 134/133/134 142/102/142 135/135/135
f 135/135/135 142/102/142 143/98/143
f 135/67/135 144/54/144 136/91/136
f 136/91/136 137/103/137 128/119/128
f 136/91/136 144/54/144 137/103/137
f 137/103/137 138/81/138 130/108/130
f 137/103/137 144/54/144 145/66/145
f 139/88/139 138/81/138 19/50/19
f 139/88/139 140/95/140 131/111/131
f 141/97/141 140/95/140 21/49/21
f 141/97/141 142/102/142 133/121/133
f 143/98/143 142/102/142 23/16/23
f 143/28/143 144/54/144 135/67/135
f 145/66/145 138/81/138 137/103/137
f 145/66/145 144/54/144 25/44/25
